0	autism	0.0357026428666
0	cdcwhistleblower	0.0296561121992
0	vaccine	0.0219771168899
0	child	0.0155064413307
0	news	0.00920345096122
0	study	0.00790142478162
0	kid	0.00770414808774
0	health	0.00609141111527
0	parent	0.00517407448873
0	variety	0.00513461914995
1	photo	0.0214373909116
1	blog	0.011392952909
1	contre	0.0106343709425
1	source	0.01017380332
1	pour	0.00955745547228
1	guerre	0.0092594411283
1	lahbabi	0.00919171059558
1	info	0.00889369625161
1	letat	0.00879210045253
1	syrie	0.00870405075999
2	music	0.0449970767188
2	discover	0.0251211478096
2	invite	0.0210386856499
2	playing	0.0197752083099
2	magazine	0.0163125652226
2	poem	0.0161039722655
2	peace	0.0151921230532
2	poetry	0.0142862336396
2	countrymusic	0.0121705050751
2	afternoon	0.0121168668861
3	booktweeter	0.0400478900451
3	news	0.017855527963
3	splash	0.0142941860493
3	case	0.0128696492839
3	search	0.0118852783729
3	carroll	0.0107408471512
3	city	0.0080198218689
3	efficient	0.00793979171354
3	biggest	0.00768369521638
3	london	0.00763567712316
4	health	0.0433806912018
4	care	0.0237210008992
4	natural	0.0223884990283
4	food	0.0154475038327
4	category	0.0140127729822
4	cancer	0.00774860413378
4	diet	0.0073678893135
4	mecfs	0.00726918547121
4	review	0.00672631433859
4	healthy	0.0065148061051
5	kindle	0.0951696844199
5	edition	0.0312623229688
5	store	0.0260745967899
5	fiction	0.0165468121083
5	thriller	0.0148989461456
5	review	0.0133494096333
5	series	0.00979259606361
5	amazoncouk	0.00882286424193
5	screen	0.00792772717577
5	conspiracy	0.00760900412948
6	love	0.0113245051295
6	life	0.0112250477321
6	dont	0.0104407040655
6	good	0.00962181830876
6	make	0.00916860226448
6	time	0.00898874517464
6	people	0.00849562706076
6	twitter	0.00798047347561
6	world	0.00682748233011
6	thing	0.00666668294515
7	2014	0.0104263230753
7	video	0.00971147950056
7	free	0.00752639027567
7	december	0.0065200324772
7	2015	0.00539706898923
7	online	0.00532609161301
7	link	0.00509541514032
7	review	0.00462645747604
7	download	0.00395724221459
7	info	0.00395724221459
8	book	0.0880956419577
8	amazoncom	0.0656738276162
8	mgwv	0.041514114282
8	ebooks	0.0400804518037
8	ebook	0.0306991313422
8	followtrick	0.0289070532443
8	gain	0.0274025411667
8	author	0.0265440107291
8	free	0.0207468464635
8	followback	0.0207010026052
9	good	0.00899989259108
9	andy	0.00837712006754
9	instagram	0.00760169637482
9	christmas	0.00722228078765
9	photo	0.00651654567217
9	release	0.00591810884226
9	time	0.00568581358482
9	magro	0.00550661438621
9	world	0.00444690554509
9	news	0.00412611685623
10	follow	0.157139028247
10	retweet	0.086399917487
10	follower	0.0341245935171
10	twitter	0.0187187352234
10	fast	0.0136924014472
10	jabberduck	0.0104383587713
10	fight	0.00996623204378
10	instagram	0.00948684182813
10	unfollowed	0.00931251811335
10	music	0.00907282300552
11	pjnet	0.0901389521652
11	tcot	0.0834683182895
11	freedom	0.026030226198
11	ccot	0.0247470680731
11	member	0.0203297850509
11	tgdn	0.0178305328147
11	blog	0.0134534882006
11	patriot	0.0107396311211
11	ffrnn	0.00960848476016
11	house	0.00934469964042
12	police	0.0153639123803
12	news	0.00911648422166
12	israel	0.00865279338393
12	protest	0.0071873319663
12	solar	0.00497302224388
12	russia	0.00490483241481
12	palestinian	0.00474241664009
12	time	0.00452916844734
12	energy	0.00446097861826
12	israeli	0.00437171193293
13	soulseeds	0.0259033569856
13	affirmation	0.0246603477175
13	daily	0.0201377063037
13	archive	0.0151943540607
13	lawton	0.0129664989879
13	training	0.00570923718435
13	nicht	0.0027833845995
13	anonymousgum	0.00218100318498
13	nn	0.00192283972161
13	hacker	0.00163599142898
14	free	0.124180793786
14	radio	0.0373822846918
14	live	0.0216473699161
14	interview	0.0204547480138
14	listen	0.0175116649323
14	internet	0.0160112696358
14	talk	0.0159022665587
14	tunein	0.0144724026651
14	money	0.0139081514425
14	viking	0.0135170227541
15	obama	0.0289845467234
15	bill	0.0117853787037
15	america	0.00989027871945
15	amnesty	0.00971556144985
15	obamas	0.0093416664929
15	teaparty	0.00851933054398
15	obamacare	0.00812563429647
15	gruber	0.00794742268148
15	linkiscom	0.00787753577364
15	house	0.00785307535589
16	tropa	0.0128867662848
16	para	0.0119672342188
16	linkiscom	0.00691297865609
16	socialismo	0.00456658648771
16	como	0.00369778722536
16	venezuela	0.00331729119806
16	volant	0.00322850879168
16	nncmx	0.00317143438759
16	correo	0.0031270431844
16	orinoco	0.00305094397894
17	gift	0.0146478720249
17	christmas	0.0139922960219
17	holiday	0.0111368373642
17	vintage	0.00737070409134
17	photography	0.0072993861998
17	ebay	0.0070607455627
17	etsy	0.00681387593811
17	travel	0.00621864584328
17	niume	0.00615829993505
17	sale	0.00576330853572
18	news	0.0124640445998
18	report	0.0119662017849
18	torture	0.0111397580052
18	video	0.00897543886917
18	american	0.00869316322843
18	black	0.00717122191816
18	people	0.00700321540988
18	state	0.00626571625223
18	year	0.00579875698658
18	government	0.00574254892682
19	social	0.0361015555431
19	business	0.0244119078115
19	medium	0.0235757844525
19	marketing	0.0196106302151
19	online	0.0166295288541
19	blog	0.0149058283908
19	twitter	0.0111657842885
19	mobile	0.00938419836188
19	join	0.0092973701669
19	page	0.00829723799509
